{
    "elm-lang/dom": "1.1.1",
    "elm-lang/html": "2.0.0",
    "rgrempel/elm-route-url": "3.0.1",
    "elm-lang/keyboard": "1.0.1",
    "elm-lang/websocket": "1.0.2",
    "elm-lang/http": "1.0.0",
    "fbonetti/elm-phoenix-socket": "2.2.0",
    "elm-lang/svg": "2.0.0",
    "elm-lang/core": "5.1.1",
    "ccapndave/elm-update-extra": "3.0.0",
    "sporto/erl": "10.0.2",
    "elm-lang/animation-frame": "1.0.1",
    "mdgriffith/elm-style-animation": "3.5.5",
    "elm-lang/navigation": "2.1.0",
    "elm-lang/virtual-dom": "2.0.4",
    "evancz/url-parser": "2.0.1"
}